{
	"AccessKeyId"		:		"xxxxxxxxxxxxxxx",
	"AccessKeySecret"	:		"xxxxxxxxxxxxxxxxxxxxxxxxxxxx",
	"Endpoint"		:		"oss-cn-shanghai.aliyuncs.com",
	"BucketName"		:		["yum-repo", "cook_book", "backup"],
	"RegionId"		:		"cn-shanghai"
}