{
	"createBucket":{
		"m_bucketName"	:	["bucket-test-a","bucket-test-b"],
		"permission"	:	[]
	},
	
	"deleteBucket":{
		"m_bucketName"	:	["bucket-test-a","bucket-test-b"]
	},
	
	"getBucketACL":{
		"m_bucketName"	:	["bucket-test-a","bucket-test-b"]
	},
	
	"setBucketACL":{
		"m_bucketName"	:	["bucket-test-a","bucket-test-b"],
		"permission"	:	["oss2.BUCKET_ACL_PUBLIC_READ","oss2.BUCKET_ACL_PUBLIC_READ_WRITE"]
	},
	
	"uploadContent":{
		"string"		:	[]
	},
	
	"uploadFile":{
		"m_bucketName"	:	"bucket-test-b",
		"parent_dir"	:	"",
		"files"			:	["disk_test.py","hello.log","test_dir"]
	},
	
	"createDir":{
		"m_bucketName"	:	"bucket-test-b",
		"dirs"			:	["conf"]
	},

	"deleteOSSObject":{
		"m_bucketName"	:	"bucket-test-b",
		"OSSDirectory"	:	["demul07a","mytest"],
		"OSSObject"		:	[]
	},
	
	"localDirtoBucket":{
		"bucketName"	:	"bucket-test-b",
		"permission"	:	"",
		"httpHeader"	:	"",
		"m_localDir"	:	"..\\..\\demul07a"
	},
	
	"buckettoLocalDir":{
		"bucketName"	:	"bucket-test-b",
		"OSSDirectory"	:	"plugins",
		"m_localDir"	:	""
	},

	"listFilesinBucket":{
		"m_bucketName"	:	"bucket-test-b"
	}
}